{
    "/js/app.js": "/js/app.js?id=a0f6326b78456c56181a",
    "/css/app.css": "/css/app.css?id=cca3a8216554a31daaf3",
    "/js/chunks/activity-log.js": "/js/chunks/activity-log.js?id=2f9ef289ea88cf7e648a",
    "/js/chunks/auth-create.js": "/js/chunks/auth-create.js?id=e71224757354a9163895",
    "/js/chunks/auth-parent.js": "/js/chunks/auth-parent.js?id=3b96e694efb91970ca9b",
    "/js/chunks/diser-tablet.js": "/js/chunks/diser-tablet.js?id=daa6f79a1088b0475009",
    "/js/chunks/diser-tablet-table.js": "/js/chunks/diser-tablet-table.js?id=2edd931b643af8a8dfc2",
    "/js/chunks/drafts.js": "/js/chunks/drafts.js?id=91d80743d28c890d6dcd",
    "/js/chunks/drafts-table.js": "/js/chunks/drafts-table.js?id=a1ebc6bae077fe9d5abe",
    "/js/chunks/drafts-view.js": "/js/chunks/drafts-view.js?id=6de8cd3adf749e1f20b5",
    "/js/chunks/drafts-view~for-approvals-view~printing-view~stock-create.js": "/js/chunks/drafts-view~for-approvals-view~printing-view~stock-create.js?id=633bccdc20a7e39d0dc7",
    "/js/chunks/for-approvals.js": "/js/chunks/for-approvals.js?id=8b92bef2b9bc5a927228",
    "/js/chunks/for-approvals-table.js": "/js/chunks/for-approvals-table.js?id=f007f62293b0a0ace96e",
    "/js/chunks/for-approvals-view.js": "/js/chunks/for-approvals-view.js?id=50cf47c9a120cde681b3",
    "/js/chunks/manual-export.js": "/js/chunks/manual-export.js?id=18159a09b8ac74b2b2ac",
    "/js/chunks/passport.js": "/js/chunks/passport.js?id=2d4de376dc048ee09fc9",
    "/js/chunks/permission.js": "/js/chunks/permission.js?id=09315dd49a2533be3ccf",
    "/js/chunks/permission-create.js": "/js/chunks/permission-create.js?id=5654cc0f0fa3dcca9bcc",
    "/js/chunks/permission-edit.js": "/js/chunks/permission-edit.js?id=a0d4dd4d7854b8a7d2be",
    "/js/chunks/permission-table.js": "/js/chunks/permission-table.js?id=adaa67bc3aa95e8bb42f",
    "/js/chunks/permission-view.js": "/js/chunks/permission-view.js?id=5c75322e4b83c9c38906",
    "/js/chunks/plant.js": "/js/chunks/plant.js?id=b1094bd7b55ff0b98858",
    "/js/chunks/plant-table.js": "/js/chunks/plant-table.js?id=9c432e7c790bb08d61f3",
    "/js/chunks/printing.js": "/js/chunks/printing.js?id=6c186f95b22446076518",
    "/js/chunks/printing-table.js": "/js/chunks/printing-table.js?id=9ff4d347ef499b825fb1",
    "/js/chunks/printing-view.js": "/js/chunks/printing-view.js?id=40de8b42e08ac1068dfa",
    "/js/chunks/profile.js": "/js/chunks/profile.js?id=93a409912a79b59ae544",
    "/js/chunks/role.js": "/js/chunks/role.js?id=6778711f3ceb14eea1a6",
    "/js/chunks/role-create.js": "/js/chunks/role-create.js?id=e15d72a108413a6643bd",
    "/js/chunks/role-edit.js": "/js/chunks/role-edit.js?id=e6bba949215d9bec85cc",
    "/js/chunks/role-table.js": "/js/chunks/role-table.js?id=b1d0ba0e12d627808cbe",
    "/js/chunks/role-view.js": "/js/chunks/role-view.js?id=65a634bc92bbb82fe20e",
    "/js/chunks/sales-order-parent.js": "/js/chunks/sales-order-parent.js?id=9f63183cbae1b34e2a07",
    "/js/chunks/sales-order-table.js": "/js/chunks/sales-order-table.js?id=1b7f1139153ff4126a89",
    "/js/chunks/sales-order-view.js": "/js/chunks/sales-order-view.js?id=83fd4c128589ef2b7fb9",
    "/js/chunks/stock.js": "/js/chunks/stock.js?id=a7a956b5ad398ba4a223",
    "/js/chunks/stock-create.js": "/js/chunks/stock-create.js?id=06a36de779ffd0c6bfd9",
    "/js/chunks/stock-req.js": "/js/chunks/stock-req.js?id=5dccf1a45713f4f663c0",
    "/js/chunks/stock-req-table.js": "/js/chunks/stock-req-table.js?id=1f6799bbdf14b8e03331",
    "/js/chunks/stock-req-view.js": "/js/chunks/stock-req-view.js?id=5bd9c48a8de8d374d0ee",
    "/js/chunks/tile.js": "/js/chunks/tile.js?id=a025c4e518ff1839ba08",
    "/js/chunks/tile-table.js": "/js/chunks/tile-table.js?id=777e5dd789497c568a70",
    "/js/chunks/users.js": "/js/chunks/users.js?id=cb4a7fb7d8ccd8b3a2cc",
    "/js/chunks/users-create.js": "/js/chunks/users-create.js?id=602dad984872f7d85c08",
    "/js/chunks/users-create~users-edit.js": "/js/chunks/users-create~users-edit.js?id=d8cd1a446138379ee87c",
    "/js/chunks/users-edit.js": "/js/chunks/users-edit.js?id=c451331d1cc17d3c4d2b",
    "/js/chunks/users-table.js": "/js/chunks/users-table.js?id=3204030d3d7aa0c29603",
    "/js/chunks/users-view.js": "/js/chunks/users-view.js?id=99d515cdd61ca406e7f8",
    "/js/chunks/vendors~activity-log~diser-tablet-table~drafts-table~drafts-view~for-approvals-table~for-approvals-v~9d394a29.js": "/js/chunks/vendors~activity-log~diser-tablet-table~drafts-table~drafts-view~for-approvals-table~for-approvals-v~9d394a29.js?id=e52fb36da8cd7a4fa188",
    "/js/chunks/vendors~drafts-table~drafts-view~for-approvals-table~for-approvals-view~printing-table~printing-view~e012876b.js": "/js/chunks/vendors~drafts-table~drafts-view~for-approvals-table~for-approvals-view~printing-table~printing-view~e012876b.js?id=9d8ebb46d07c6d4fba08",
    "/js/chunks/vendors~drafts-table~for-approvals-table~printing-table~sales-order-table~stock-req-table.js": "/js/chunks/vendors~drafts-table~for-approvals-table~printing-table~sales-order-table~stock-req-table.js?id=9c316501b42bf67e8305"
}
